\relax 
\providecommand\hyper@newdestlabel[2]{}
\providecommand\HyperFirstAtBeginDocument{\AtBeginDocument}
\HyperFirstAtBeginDocument{\ifx\hyper@anchor\@undefined
\global\let\oldcontentsline\contentsline
\gdef\contentsline#1#2#3#4{\oldcontentsline{#1}{#2}{#3}}
\global\let\oldnewlabel\newlabel
\gdef\newlabel#1#2{\newlabelxx{#1}#2}
\gdef\newlabelxx#1#2#3#4#5#6{\oldnewlabel{#1}{{#2}{#3}}}
\AtEndDocument{\ifx\hyper@anchor\@undefined
\let\contentsline\oldcontentsline
\let\newlabel\oldnewlabel
\fi}
\fi}
\global\let\hyper@last\relax 
\gdef\HyperFirstAtBeginDocument#1{#1}
\providecommand\HyField@AuxAddToFields[1]{}
\providecommand\HyField@AuxAddToCoFields[2]{}
\babel@aux{english}{}
\@writefile{toc}{\contentsline {section}{\numberline {1}A Primer on Probability}{1}{section.1}\protected@file@percent }
\@writefile{toc}{\contentsline {subsection}{\numberline {1.1}Useful Probability Concepts}{3}{subsection.1.1}\protected@file@percent }
\@writefile{toc}{\contentsline {subsection}{\numberline {1.2}Useful Functional Analysis Concepts}{6}{subsection.1.2}\protected@file@percent }
\@writefile{toc}{\contentsline {subsection}{\numberline {1.3}Why is this important?}{9}{subsection.1.3}\protected@file@percent }
\@writefile{lof}{\contentsline {figure}{\numberline {1}{\ignorespaces The expectation value becomes a good predictor of average behavior over many trials.}}{10}{figure.1}\protected@file@percent }
\newlabel{fig:lawlargenumbers}{{1}{10}{The expectation value becomes a good predictor of average behavior over many trials}{figure.1}{}}
\newlabel{fig:lawlargenumbers@cref}{{[figure][1][]1}{[1][10][]10}}
\@writefile{toc}{\contentsline {section}{\numberline {2}Very Large Numbers}{10}{section.2}\protected@file@percent }
\@writefile{toc}{\contentsline {subsection}{\numberline {2.1}The Binomial Distribution}{11}{subsection.2.1}\protected@file@percent }
\@writefile{lof}{\contentsline {figure}{\numberline {2}{\ignorespaces The binomial distribution for several values of $N$. To make them easier to compare, all the curves have been normalized to go from 0 to 1 along each axis.}}{13}{figure.2}\protected@file@percent }
\newlabel{fig:binomial}{{2}{13}{The binomial distribution for several values of $N$. To make them easier to compare, all the curves have been normalized to go from 0 to 1 along each axis}{figure.2}{}}
\newlabel{fig:binomial@cref}{{[figure][2][]2}{[1][13][]13}}
\@writefile{toc}{\contentsline {section}{\numberline {3}Microstates \& Macrostates}{15}{section.3}\protected@file@percent }
\@writefile{toc}{\contentsline {subsection}{\numberline {3.1}Phase Space}{16}{subsection.3.1}\protected@file@percent }
\@writefile{toc}{\contentsline {subsection}{\numberline {3.2}The Postulate of Equal \textit  {a priori} Possibilities}{17}{subsection.3.2}\protected@file@percent }
\newlabel{sec:postulate}{{3.2}{17}{The Postulate of Equal \textit {a priori} Possibilities}{subsection.3.2}{}}
\newlabel{sec:postulate@cref}{{[subsection][2][3]3.2}{[1][17][]17}}
\@writefile{toc}{\contentsline {subsection}{\numberline {3.3}Time Averages \& Ensemble Averages}{18}{subsection.3.3}\protected@file@percent }
\@writefile{toc}{\contentsline {subsection}{\numberline {3.4}The Maxwell-Boltzmann Distribution}{19}{subsection.3.4}\protected@file@percent }
\@writefile{toc}{\contentsline {subsection}{\numberline {3.5}Thermodynamic Forces}{23}{subsection.3.5}\protected@file@percent }
\@writefile{toc}{\contentsline {subsubsection}{\numberline {3.5.1}Pressure}{24}{subsubsection.3.5.1}\protected@file@percent }
\@writefile{toc}{\contentsline {subsubsection}{\numberline {3.5.2}Chemical Potential}{25}{subsubsection.3.5.2}\protected@file@percent }
\@writefile{toc}{\contentsline {subsection}{\numberline {3.6}Probabilities of Macrostates}{25}{subsection.3.6}\protected@file@percent }
\@writefile{lof}{\contentsline {figure}{\numberline {3}{\ignorespaces Ludwig Boltzmann (1844-1906) conceptualized a kinetic theory of gases, the foundation to statistical mechanics, before atomic theory was commonly accepted.}}{27}{figure.3}\protected@file@percent }
\@writefile{toc}{\contentsline {subsection}{\numberline {3.7}Thermodynamic Potentials}{27}{subsection.3.7}\protected@file@percent }
\@writefile{toc}{\contentsline {subsection}{\numberline {3.8}Statistics}{28}{subsection.3.8}\protected@file@percent }
\@writefile{toc}{\contentsline {section}{\numberline {4}The Interpretation of Statistical Quantities}{29}{section.4}\protected@file@percent }
\newlabel{sec:interpretation}{{4}{29}{The Interpretation of Statistical Quantities}{section.4}{}}
\newlabel{sec:interpretation@cref}{{[section][4][]4}{[1][28][]29}}
\@writefile{toc}{\contentsline {subsection}{\numberline {4.1}Temperature}{29}{subsection.4.1}\protected@file@percent }
\newlabel{sec:temperature}{{4.1}{29}{Temperature}{subsection.4.1}{}}
\newlabel{sec:temperature@cref}{{[subsection][1][4]4.1}{[1][29][]29}}
\@writefile{lof}{\contentsline {figure}{\numberline {4}{\ignorespaces The function $f(x) = e^{-x^2}$ is plotted. It is an ``even" function. The integral from $-\infty $ to $\infty $ is unity.}}{31}{figure.4}\protected@file@percent }
\@writefile{toc}{\contentsline {subsection}{\numberline {4.2}Thermodynamic Potentials as a Measure of Probability}{32}{subsection.4.2}\protected@file@percent }
\@writefile{toc}{\contentsline {subsection}{\numberline {4.3}Independent \& Dependent Variables}{34}{subsection.4.3}\protected@file@percent }
\@writefile{toc}{\contentsline {subsection}{\numberline {4.4}Thermodynamic Potentials \& Thermodynamic Forces}{35}{subsection.4.4}\protected@file@percent }
\newlabel{sec:potentialsforces}{{4.4}{35}{Thermodynamic Potentials \& Thermodynamic Forces}{subsection.4.4}{}}
\newlabel{sec:potentialsforces@cref}{{[subsection][4][4]4.4}{[1][35][]35}}
\@writefile{toc}{\contentsline {subsection}{\numberline {4.5}The Mechanics of Thermodynamic Forces}{37}{subsection.4.5}\protected@file@percent }
\@writefile{toc}{\contentsline {subsection}{\numberline {4.6}Thermal Equilibrium}{38}{subsection.4.6}\protected@file@percent }
\@writefile{toc}{\contentsline {section}{\numberline {5}Applying Statistical Mechanics}{39}{section.5}\protected@file@percent }
\@writefile{toc}{\contentsline {subsection}{\numberline {5.1}The Nernst Equation}{39}{subsection.5.1}\protected@file@percent }
\@writefile{lof}{\contentsline {figure}{\numberline {5}{\ignorespaces Ion channels function as pores to permit the flux of ions down their electrochemical potential gradient (Marb\'an, 2002).}}{40}{figure.5}\protected@file@percent }
